{
  "count": 238,
  "next": "http://example.com/api/tags/?page=2",
  "previous": null,
  "all": [
    71, 74, 75, 67, 70, 72, 73, 84, 255, 210, 45, 80, 254, 128, 62, 175, 28,
    179, 35, 23, 135, 163, 133, 209, 103, 91, 38, 65, 215, 104, 105, 142, 144,
    245, 37, 6, 185, 122, 24, 165, 90, 137, 232, 152, 174, 157, 155, 77, 60,
    248, 154, 76, 171, 53, 31, 181, 92, 59, 115, 212, 32, 230, 46, 162, 116,
    138, 243, 98, 18, 177, 30, 164, 233, 159, 99, 218, 40, 27, 168, 151, 123,
    226, 13, 83, 106, 187, 214, 68, 107, 231, 81, 129, 124, 173, 34, 117, 118,
    14, 57, 2, 199, 204
  ],
  "results": [
    {
      "id": 71,
      "slug": "example-slug",
      "name": "example-name",
      "color": "#b3cee6",
      "text_color": "#000000",
      "match": "",
      "matching_algorithm": 6,
      "is_insensitive": true,
      "is_inbox_tag": false,
      "document_count": 74,
      "owner": 3,
      "user_can_change": true
    },
    {
      "id": 74,
      "slug": "example-slug",
      "name": "example-name",
      "color": "#b3cee6",
      "text_color": "#000000",
      "match": "",
      "matching_algorithm": 6,
      "is_insensitive": true,
      "is_inbox_tag": false,
      "document_count": 4,
      "owner": 3,
      "user_can_change": true
    },
    {
      "id": 75,
      "slug": "example-slug",
      "name": "example-name",
      "color": "#b3cee6",
      "text_color": "#000000",
      "match": "",
      "matching_algorithm": 6,
      "is_insensitive": true,
      "is_inbox_tag": false,
      "document_count": 1,
      "owner": 3,
      "user_can_change": true
    },
    {
      "id": 67,
      "slug": "example-slug",
      "name": "example-name",
      "color": "#b3cee6",
      "text_color": "#000000",
      "match": "",
      "matching_algorithm": 6,
      "is_insensitive": true,
      "is_inbox_tag": false,
      "document_count": 4,
      "owner": 3,
      "user_can_change": true
    },
    {
      "id": 70,
      "slug": "example-slug",
      "name": "example-name",
      "color": "#b3cee6",
      "text_color": "#000000",
      "match": "",
      "matching_algorithm": 6,
      "is_insensitive": true,
      "is_inbox_tag": false,
      "document_count": 4,
      "owner": 3,
      "user_can_change": true
    },
    {
      "id": 72,
      "slug": "example-slug",
      "name": "example-name",
      "color": "#b3cee6",
      "text_color": "#000000",
      "match": "",
      "matching_algorithm": 6,
      "is_insensitive": true,
      "is_inbox_tag": false,
      "document_count": 0,
      "owner": 3,
      "user_can_change": true
    },
    {
      "id": 73,
      "slug": "example-slug",
      "name": "example-name",
      "color": "#b3cee6",
      "text_color": "#000000",
      "match": "",
      "matching_algorithm": 6,
      "is_insensitive": true,
      "is_inbox_tag": false,
      "document_count": 0,
      "owner": 3,
      "user_can_change": true
    },
    {
      "id": 84,
      "slug": "example-slug",
      "name": "example-name",
      "color": "#cb77dd",
      "text_color": "#000000",
      "match": "",
      "matching_algorithm": 0,
      "is_insensitive": true,
      "is_inbox_tag": false,
      "document_count": 1,
      "owner": 3,
      "user_can_change": true
    },
    {
      "id": 255,
      "slug": "example-slug",
      "name": "example-name",
      "color": "#b3e6d9",
      "text_color": "#000000",
      "match": "",
      "matching_algorithm": 6,
      "is_insensitive": true,
      "is_inbox_tag": false,
      "document_count": 40,
      "owner": 3,
      "user_can_change": true
    },
    {
      "id": 210,
      "slug": "example-slug",
      "name": "example-name",
      "color": "#b3cee6",
      "text_color": "#000000",
      "match": "",
      "matching_algorithm": 0,
      "is_insensitive": true,
      "is_inbox_tag": false,
      "document_count": 10,
      "owner": 3,
      "user_can_change": true
    },
    {
      "id": 45,
      "slug": "example-slug",
      "name": "example-name",
      "color": "#cb77dd",
      "text_color": "#000000",
      "match": "",
      "matching_algorithm": 0,
      "is_insensitive": true,
      "is_inbox_tag": false,
      "document_count": 0,
      "owner": 3,
      "user_can_change": true
    },
    {
      "id": 80,
      "slug": "example-slug",
      "name": "example-name",
      "color": "#cb77dd",
      "text_color": "#000000",
      "match": "",
      "matching_algorithm": 0,
      "is_insensitive": true,
      "is_inbox_tag": false,
      "document_count": 0,
      "owner": 3,
      "user_can_change": true
    },
    {
      "id": 254,
      "slug": "example-slug",
      "name": "example-name",
      "color": "#cb77dd",
      "text_color": "#000000",
      "match": "",
      "matching_algorithm": 0,
      "is_insensitive": true,
      "is_inbox_tag": false,
      "document_count": 18,
      "owner": 3,
      "user_can_change": true
    },
    {
      "id": 128,
      "slug": "example-slug",
      "name": "example-name",
      "color": "#cb77dd",
      "text_color": "#000000",
      "match": "",
      "matching_algorithm": 6,
      "is_insensitive": true,
      "is_inbox_tag": false,
      "document_count": 0,
      "owner": 3,
      "user_can_change": true
    },
    {
      "id": 62,
      "slug": "example-slug",
      "name": "example-name",
      "color": "#b3e6d9",
      "text_color": "#000000",
      "match": "",
      "matching_algorithm": 6,
      "is_insensitive": true,
      "is_inbox_tag": false,
      "document_count": 61,
      "owner": 3,
      "user_can_change": true
    },
    {
      "id": 175,
      "slug": "example-slug",
      "name": "example-name",
      "color": "#b5b3e6",
      "text_color": "#000000",
      "match": "",
      "matching_algorithm": 6,
      "is_insensitive": true,
      "is_inbox_tag": false,
      "document_count": 1,
      "owner": 3,
      "user_can_change": true
    },
    {
      "id": 28,
      "slug": "example-slug",
      "name": "example-name",
      "color": "#b5b3e6",
      "text_color": "#000000",
      "match": "",
      "matching_algorithm": 6,
      "is_insensitive": true,
      "is_inbox_tag": false,
      "document_count": 22,
      "owner": 3,
      "user_can_change": true
    },
    {
      "id": 179,
      "slug": "example-slug",
      "name": "example-name",
      "color": "#b5b3e6",
      "text_color": "#000000",
      "match": "",
      "matching_algorithm": 6,
      "is_insensitive": true,
      "is_inbox_tag": false,
      "document_count": 12,
      "owner": 3,
      "user_can_change": true
    },
    {
      "id": 35,
      "slug": "example-slug",
      "name": "example-name",
      "color": "#cb77dd",
      "text_color": "#000000",
      "match": "",
      "matching_algorithm": 0,
      "is_insensitive": true,
      "is_inbox_tag": false,
      "document_count": 1,
      "owner": 3,
      "user_can_change": true
    },
    {
      "id": 23,
      "slug": "example-slug",
      "name": "example-name",
      "color": "#b3e6d9",
      "text_color": "#000000",
      "match": "",
      "matching_algorithm": 6,
      "is_insensitive": true,
      "is_inbox_tag": false,
      "document_count": 4,
      "owner": 3,
      "user_can_change": true
    },
    {
      "id": 135,
      "slug": "example-slug",
      "name": "example-name",
      "color": "#cb77dd",
      "text_color": "#000000",
      "match": "",
      "matching_algorithm": 0,
      "is_insensitive": true,
      "is_inbox_tag": false,
      "document_count": 0,
      "owner": 3,
      "user_can_change": true
    },
    {
      "id": 163,
      "slug": "example-slug",
      "name": "example-name",
      "color": "#b3e6d9",
      "text_color": "#000000",
      "match": "",
      "matching_algorithm": 6,
      "is_insensitive": true,
      "is_inbox_tag": false,
      "document_count": 20,
      "owner": 3,
      "user_can_change": true
    },
    {
      "id": 133,
      "slug": "example-slug",
      "name": "example-name",
      "color": "#cb77dd",
      "text_color": "#000000",
      "match": "",
      "matching_algorithm": 6,
      "is_insensitive": true,
      "is_inbox_tag": false,
      "document_count": 0,
      "owner": 3,
      "user_can_change": true
    },
    {
      "id": 209,
      "slug": "example-slug",
      "name": "example-name",
      "color": "#b3cee6",
      "text_color": "#000000",
      "match": "",
      "matching_algorithm": 0,
      "is_insensitive": true,
      "is_inbox_tag": false,
      "document_count": 29,
      "owner": 3,
      "user_can_change": true
    },
    {
      "id": 103,
      "slug": "example-slug",
      "name": "example-name",
      "color": "#cb77dd",
      "text_color": "#000000",
      "match": "",
      "matching_algorithm": 0,
      "is_insensitive": true,
      "is_inbox_tag": false,
      "document_count": 0,
      "owner": 3,
      "user_can_change": true
    }
  ]
}
